{
    "femgen model": 

        {
            "__name__": "ULSBodyResults",

            "__description__": "data model representing uls results for one body",

            "__type__": "dtosk:results:ULSBodyResults",
        
            "__properties__": [

                { "name":"forces_on_fixed_structure",
                  "type": "double",
                  "dim":"*,*,*",
                  "description":"shape=(len(beta),len(environment_array),6)"
                },
                { "name":"mooring_pretension",
                  "type": "double",
                  "dim":"*,*",
                  "description":"shape=(nlines,2)"
                },
                { "name":"mooring_stiffness",
                  "type": "double",
                  "dim":"6,6",
                  "description":"Stiffness of mooring system at initial position. [N/m], [N.m/rad]"
                },
                { "name":"eigenperiod",
                  "type": "double",
                  "dim":"6",
                  "description":"Estimated eigenperiods of the anchored floater [s]"
                }, 
                { "name":"total_offset",
                  "type": "double",
                  "dim":"*,*",
                  "description":"shape=(len(beta),len(environment_array))"
                },
                { "name":"total_position",
                  "type": "double",
                  "dim":"*,*,*",
                  "description":"shape=(len(beta),len(environment_array),6)"
                },
                { "name":"steady_position",
                  "type": "double",
                  "dim":"*,*,*",
                  "description":"shape=(len(beta),len(environment_array),6)"
                },
                { "name":"steady_force",
                  "type": "double",
                  "dim":"*,*,*",
                  "description":"shape=(len(beta),len(environment_array),6)"
                },
                { "name":"steady_offset",
                  "type": "double",
                  "dim":"*,*",
                  "description":"shape=(len(beta),len(environment_array))"
                },
                { "name":"steady_mooring_force",
                  "type": "double",
                  "dim":"*,*,*,*,*",
                  "description":"shape=(len(beta),len(environment_array),len(body.mooring_system_force.line_properties),2,3)"
                },
                { "name":"steady_mooring_tension",
                  "type": "double",
                  "dim":"*,*,*,*",
                  "description":"shape=(len(beta),len(environment_array),len(body.mooring_system_force.line_properties),2)"
                },
                { "name":"dynamic_offset",
                  "type": "double",
                  "dim":"*,*",
                  "description":"shape=(len(beta),len(environment_array))"
                },
                { "name":"motion_spectrum",
                  "type": "double",
                  "dim":"*,*,*,*",
                  "description":"shape=(len(beta),len(environment_array),n_omega,6)"
                },
                { "name":"omega",
                  "type": "double",
                  "dim":"*",
                  "description":"shape=(n_omega)"
                },
                { "name":"damping_matrix",
                  "type": "double",
                  "dim":"*,*,*",
                  "description":"shape=(len(beta),len(environment_array),6)"
                },
                { "name":"mooring_force",
                  "type": "double",
                  "dim":"*,*,*,*,*",
                  "description":"shape=(len(beta),len(environment_array),len(body.mooring_system_force.line_properties),2,3)"
                },
                { "name":"mooring_tension",
                  "type": "double",
                  "dim":"*,*,*,*",
                  "description":"shape=(len(beta),len(environment_array),len(body.mooring_system_force.line_properties),2)"
                },
                { "name":"tension_versus_mbl",
                  "type": "double",
                  "dim":"*,*,*",
                  "description":"shape=(len(beta),len(environment_array),len(body.mooring_system_force.line_properties))"
                },
                { "name":"mbl_uls",
                  "type": "double",
                  "dim":"*",
                  "description":"MBL of each segment, used for the uls analysis. shape=(len(body.mooring_system_force.line_properties))"
                },      
                { "name":"mooring_touchdown",
                  "type": "double",
                  "dim":"*,*,*",
                  "description":"shape=(len(beta),len(environment_array),len(body.mooring_system_force.line_properties))"
                },
                { "name":"safety_factor",
                  "type": "double",
                  "value":"0.0",
                  "description":"Safety factor used to check tension against mbl : Tension * SF < MBL is ok."
                }
        ]
    }
}