{
    "characteristic_dimension": 8,
    "draft": 3,
    "hub_height": 7,
    "height": 10,
    "width": 10,
    "length": 70,
    "submerged_volume": 700,
    "wet_area": 1001,
    "wet_frontal_area": 10,
    "dry_frontal_area": 100,
    "beam_wet_area": 10,
    "dry_profile": "cylinder",
    "wet_profile": "cylinder",
    "mass": 700000,
    "footprint_radius": 50
}
