{
  "orientation_angle": [12.2,12.2],
  "minimum_interdistance": [10,10],
  "nb_devices": 2,
  "layout_type": "verification",
  "opt_method": "",
  "array_layout": [[0.0,0],[0.0,100]],
  "notes": "",
  "array_generic_type": ""
}
