{
    "_type_": "dtosk:inputs:FLSAnalysisParameters",
    "name": "fatigue_analysis_parameters",
    "description": "Environments for fatigue analysis",
    "latitude": 48.43041027173684,
    "longitude": -5.055606747135228,
    "hs_dp_proba": [
        32.697240511,
        14.21079288316696,
        12.521443625729084,
        9.096998709297957,
        8.064437074190861,
        7.928831669580277,
        5.778750796477527,
        4.102471939484046,
        3.422811116375578,
        2.1762216739915368
    ],
    "intervals_hs_min": [
        0.0,
        1.0,
        1.0,
        0.0,
        1.0,
        0.0,
        2.0,
        2.0,
        1.0,
        2.0
    ],
    "intervals_hs_max": [
        1.0,
        2.0,
        2.0,
        1.0,
        2.0,
        1.0,
        3.0,
        3.0,
        2.0,
        3.0
    ],
    "intervals_dp_min": [
        240.0,
        240.0,
        210.0,
        270.0,
        270.0,
        210.0,
        210.0,
        240.0,
        30.0,
        270.0
    ],
    "intervals_dp_max": [
        270.0,
        270.0,
        240.0,
        300.0,
        300.0,
        240.0,
        240.0,
        270.0,
        60.0,
        300.0
    ],
    "associated_tp": [
        10.162544471201292,
        11.12617217630049,
        7.539942808593332,
        11.423402089227075,
        13.05649701452838,
        7.652515132189262,
        8.063019298976338,
        12.196207839342529,
        5.7974936608437275,
        14.461197400540643
    ],
    "associated_cur": [
        1.7177229149884488,
        1.6171388793680899,
        1.8939780836692717,
        1.650454773823693,
        1.612093215863549,
        1.8197582658322562,
        1.9190268679790252,
        1.5828237470999214,
        1.5237760343710474,
        1.450331679561556
    ],
    "associated_dircur": [
        50.36773626773215,
        230.73168326284008,
        226.3971818394473,
        234.46232220802563,
        51.17992487912277,
        236.97613184401092,
        20.556045219583467,
        53.176197054238635,
        235.4431948762035,
        232.2840244522474
    ],
    "associated_wind": [
        5.136326253436391,
        7.661916358929777,
        7.147787872001844,
        5.1420375234180185,
        7.952007001528662,
        4.933267473857079,
        10.063700091069602,
        10.742517372255135,
        8.960369820761269,
        11.395642106841166
    ],
    "associated_dirwind": [
        196.42218723371423,
        9.238292882997598,
        279.2110267838839,
        23.198589924838814,
        51.03325379199839,
        300.78414456375964,
        320.90613946074996,
        65.3084413597719,
        31.50426522090254,
        140.05022741612413
    ]
}