{
    "femgen model": 
  
        {
            "__name__": "AnchorCatalogue",
  
            "__description__": "data model Drag anchor catalog",
  
            "__type__": "dtosk:catalogue:AnchorCatalogue",
        
            "__properties__": [

                {"name": "catalogue_id",
                "type": "string",
                "description":"catalogue ID",
                "dim":"*"
                },
                {"name": "m_soft_soil",
                 "type":"double",
                 "description":"m value for soft soil",
                 "dim":"*"
                },
                {"name": "b_soft_soil",
                 "type":"double",
                 "description":"b value for soft soil",
                 "dim":"*"
                },
                {"name": "m_mid_soil",
                 "type":"double",
                 "description":"m value for mid soil",
                 "dim":"*"
                },
                {"name": "b_mid_soil",
                 "type":"double",
                 "description":"b value for mid soil",
                 "dim":"*"
                },
                {"name": "m_stiff_soil_sand",
                 "type":"double",
                 "description":"m value for stiff soil",
                 "dim":"*"
                },
                {"name": "b_stiff_soil_sand",
                 "type":"double",
                 "description":"b value for stiff soil",
                 "dim":"*"
                },
                {"name": "m_A",
                 "type":"double",
                 "description":"m value for dimmension A",
                 "dim":"*"
                },
                {"name": "b_A",
                 "type":"double",
                 "description":"b value for dimmension A",
                 "dim":"*"
                },
                {"name": "m_B",
                 "type":"double",
                 "description":"m value for dimmension B",
                 "dim":"*"
                },
                {"name": "b_B",
                 "type":"double",
                 "description":"b value for dimmension B",
                 "dim":"*"
                },
                {"name": "m_EF",
                 "type":"double",
                 "description":"m value for dimmension EF",
                 "dim":"*"
                },
                {"name": "b_EF",
                 "type":"double",
                 "description":"b value for dimmension EF",
                 "dim":"*"
                },
                {"name": "Rel_soft_soil",
                 "type":"double",
                 "description":"Realiability in soft soil",
                 "dim":"*"
                },
                {"name": "Rel_mid_soil",
                 "type":"double",
                 "description":"Realiability in mid soil",
                 "dim":"*"
                },
                {"name": "Rel_stiff_soil",
                 "type":"double",
                 "description":"Realiability in hard soil",
                 "dim":"*"
                }
            ]
        }
}