{
    "femgen model": 

        {
            "__name__": "RectangularCuboid",

            "__description__": "data model representing a rectangular cuboid",

            "__type__": "dtosk:entity:geometry:RectangularCuboid",
        
            "__properties__": [

                { "name":"dx",
                  "type": "double",
				  "description": "length along x direction"
                },
                { "name":"dy",
                  "type": "double",
				  "description": "length along y direction"
                },
                { "name":"dz",
                    "type": "double",
                    "description": "length along z direction"
                }                     
        ]
    }
}