{
    "femgen model": 
  
        {
            "__name__": "FoundFoot",
  
            "__description__": "foundation footprint",
  
            "__type__": "dtosk:foundations:outputs:FoundFoot",
        
            "__properties__": [
  
              {"name": "foundationId",
                "type": "string",
                "description":"foundation Id"
              },

              {"name": "footprint",
                "type":"double",
                "description": "anchor  or foundation footprint for foundation id" 
            }                             

                               

        ]
    }}