{
    "femgen model": 

        {
            "__name__": "CustomFoundationInputs",

            "__description__": "data model representing parameters for custom foundation design",

            "__type__": "dtosk:inputs:CustomFoundationInputs",
        
            "__properties__": [
     
                {   "name":"d_ext",
                    "type": "double",
                    "value":"0.0",
                    "description":"External diameter [m] (pile, suction caisson)"
                },
                {   "name":"w_t",
                    "type": "double",
                    "description":"Thickness [m] (pile, suction caisson)"
                },
                {   "name":"length",
                    "type": "double",
                    "description":"Pile length [m] (pile, suction caisson)"
                },
                {   "name":"geometry_pref",
                    "type": "string",
                    "description":"Geometry preference. Rectangular or cylinder. (gravity)"
                },
                {   "name":"base_lx",
                    "type": "double",
                    "description":"Length [m]. Required if geometry_pref is rectangular. (gravity)"
                },
                {   "name":"base_ly",
                    "type": "double",
                    "description":"Width [m]. Required if geometry_pref is rectangular. (gravity)"
                },
                {   "name":"base_radius",
                    "type": "double",
                    "description":"Radius [m]. Required if geometry_pref is cylinder. (gravity)"
                },
                {   "name":"thickness",
                    "type": "double",
                    "description":"Thickness [m]. (gravity)"
                },
                {   "name":"mass",
                    "type": "double",
                    "description":"Drag anchor mass [kg]. (drag)"
                },
                {   "name":"drag_anchor_coefficients",
                    "type": "double",
                    "dim":"8",
                    "description":"Drag anchor coefficients [m_anchor, b_anchor, m_a, b_a, m_b, b_b, m_ef, b_ef] (drag)"
                },
                {"name": "base_r1",
                    "type": "double",
                    "description":"radius of the first contact point foundation for contact points geometry (gravity)",
                    "unit": "m"},
    
                {"name": "base_r2",
                "type": "double",
                "description":"radius of the second contact point foundation for contact points geometry (gravity)",
                "unit": "m"},

                {"name": "base_r3",
                "type": "double",
                "description":"radius of the third contact point foundation for contact points geometry (gravity)",
                "unit": "m"},

                {"name": "base_alpha01",
                "type": "double",
                "description":"Absolute angle between X-axis and first contact point foundation for contact points geometry (gravity)",
                "unit": "deg"},

                {"name": "base_alpha12",
                "type": "double",
                "description":"angle between the first and second contact points foundation for contact points geometry (gravity)",
                "unit": "deg"},

                {"name": "base_alpha23",
                "type": "double",
                "description":"angle between the second and third contact points foundation for contact points geometry (gravity)",
                "unit": "deg"},

                {"name": "contact_points_mass",
                "type": "double",
                "description":"total mass of the contact points foundation (gravity)",
                "unit": "kg"}                                       
        ]
    }
}
