{
    "femgen model": 

        {
            "__name__": "MooringCheckInputs",

            "__description__": "data model containing enough data to run a mooring check",

            "__type__": "dtosk:inputs:MooringCheckInputs",
        
            "__properties__": [

                { "name":"water_depth",
                    "type": "double",
                    "value":"100",
                    "description":"Water depth [m]"
                },
                { "name":"water_density",
                    "type": "double",
                    "value":"1025.0",
                    "description":"Water density [kg/m**3]"
                },
                { "name":"device_position",
                    "type": "double",
                    "dim":"6",
                    "description":"Position of device [m] and [deg]"
                },
                { "name":"custom_mooring_input",
                    "type": "dtosk:inputs:CustomMooringInput",
                    "description":"Mooring system input of the device, required if mooring_input_flag is custom"
                },
                { "name":"html_plot_file_name",
                    "type": "string",
                    "description":"Path used to save html plot file"
                },
                { "name":"logo_file_name",
                    "type": "string",
                    "description":"Path to logo picture of DTO+ to display on plot"
                },
                { "name":"results_file_name",
                    "type": "string",
                    "description":"Path used to save result file"
                }                       
        ]
    }
}