{
    "__type__": "dtosk:dr:DigitalRepresentation",
    "name": "SK-DigitalRepresentation",
    "description": "",
    "station_keeping": [
        {
            "__type__": "dtosk:dr:DRStationKeeping",
            "name": "none",
            "description": "",
            "id": "1_1",
            "hierarchical": {
                "__type__": "dtosk:dr:DRStationKeepingHierarchical",
                "name": "none",
                "description": "hierarchical connections",
                "part_of_array": {
                    "__type__": "dtosk:dr:TaggedString",
                    "name": "none",
                    "description": "parent array id",
                    "value": "1",
                    "origin": "SK"
                },
                "foundations": {
                    "__type__": "dtosk:dr:TaggedStringArray",
                    "name": "none",
                    "description": "children foundations id",
                    "value": [],
                    "origin": "SK"
                },
                "mooring_line": {
                    "__type__": "dtosk:dr:TaggedStringArray",
                    "name": "none",
                    "description": "children mooring lines id",
                    "value": [
                        "1_1_1",
                        "1_1_2",
                        "1_1_3"
                    ],
                    "origin": "SK"
                },
                "node": {
                    "__type__": "dtosk:dr:TaggedStringArray",
                    "name": "none",
                    "description": "children node id",
                    "value": [
                        "1_1_1",
                        "1_1_2",
                        "1_1_3",
                        "1_1_4",
                        "1_1_5",
                        "1_1_6"
                    ],
                    "origin": "SK"
                }
            }
        }
    ],
    "mooring_line": [
        {
            "__type__": "dtosk:dr:DRMooringLine",
            "name": "none",
            "description": "",
            "id": "1_1_1",
            "hierarchical": {
                "__type__": "dtosk:dr:DRMooringLineHierarchical",
                "name": "none",
                "description": "hierarchical connections",
                "part_of_station_keeping": {
                    "__type__": "dtosk:dr:TaggedString",
                    "name": "none",
                    "description": "parent station keeping id",
                    "value": "1_1",
                    "origin": "SK"
                },
                "mooring_line_segment": {
                    "__type__": "dtosk:dr:TaggedStringArray",
                    "name": "none",
                    "description": "children mooring line segments id",
                    "value": [
                        "1_1_1"
                    ],
                    "origin": "SK"
                }
            }
        },
        {
            "__type__": "dtosk:dr:DRMooringLine",
            "name": "none",
            "description": "",
            "id": "1_1_2",
            "hierarchical": {
                "__type__": "dtosk:dr:DRMooringLineHierarchical",
                "name": "none",
                "description": "hierarchical connections",
                "part_of_station_keeping": {
                    "__type__": "dtosk:dr:TaggedString",
                    "name": "none",
                    "description": "parent station keeping id",
                    "value": "1_1",
                    "origin": "SK"
                },
                "mooring_line_segment": {
                    "__type__": "dtosk:dr:TaggedStringArray",
                    "name": "none",
                    "description": "children mooring line segments id",
                    "value": [
                        "1_1_2"
                    ],
                    "origin": "SK"
                }
            }
        },
        {
            "__type__": "dtosk:dr:DRMooringLine",
            "name": "none",
            "description": "",
            "id": "1_1_3",
            "hierarchical": {
                "__type__": "dtosk:dr:DRMooringLineHierarchical",
                "name": "none",
                "description": "hierarchical connections",
                "part_of_station_keeping": {
                    "__type__": "dtosk:dr:TaggedString",
                    "name": "none",
                    "description": "parent station keeping id",
                    "value": "1_1",
                    "origin": "SK"
                },
                "mooring_line_segment": {
                    "__type__": "dtosk:dr:TaggedStringArray",
                    "name": "none",
                    "description": "children mooring line segments id",
                    "value": [
                        "1_1_3"
                    ],
                    "origin": "SK"
                }
            }
        }
    ],
    "mooring_line_segment": [
        {
            "__type__": "dtosk:dr:DRMooringLineSegment",
            "name": "none",
            "description": "",
            "id": "1_1_1",
            "hierarchical": {
                "__type__": "dtosk:dr:DRMooringLineSegmentHierarchical",
                "name": "none",
                "description": "hierarchical connections",
                "part_of_mooring_line": {
                    "__type__": "dtosk:dr:TaggedString",
                    "name": "none",
                    "description": "parent mooring line id",
                    "value": "1_1_1",
                    "origin": "SK"
                },
                "node": {
                    "__type__": "dtosk:dr:TaggedStringArray",
                    "name": "none",
                    "description": "children node id",
                    "value": [
                        "1_1_1",
                        "1_1_2"
                    ],
                    "origin": "SK"
                }
            },
            "assessment": {
                "__type__": "dtosk:dr:DRMooringLineSegmentAssessment",
                "name": "none",
                "description": "assessment",
                "pretension": {
                    "__type__": "dtosk:dr:TaggedScalar",
                    "name": "none",
                    "description": "mooring line segment pretension",
                    "unit": "N",
                    "value": 288462.5967467831,
                    "origin": "SK"
                },
                "uls_maximum_tension": {
                    "__type__": "dtosk:dr:TaggedScalar",
                    "name": "none",
                    "description": "maximum tension calculated during ULS analysis",
                    "unit": "N",
                    "value": 285045.43677810335,
                    "origin": "SK"
                }
            },
            "properties": {
                "__type__": "dtosk:dr:DRMooringLineSegmentProperties",
                "name": "none",
                "description": "properties",
                "line_type_name": {
                    "__type__": "dtosk:dr:TaggedString",
                    "name": "none",
                    "description": "Line type name",
                    "value": "default_chain_R3_41",
                    "origin": "SK"
                },
                "material": {
                    "__type__": "dtosk:dr:TaggedString",
                    "name": "none",
                    "description": "Material of the line",
                    "value": "steel",
                    "origin": "SK"
                },
                "type": {
                    "__type__": "dtosk:dr:TaggedString",
                    "name": "none",
                    "description": "Type of line: chain, rope, polyester",
                    "value": "chain",
                    "origin": "SK"
                },
                "quality": {
                    "__type__": "dtosk:dr:TaggedString",
                    "name": "none",
                    "description": "line quality (used for chain) : R3,R4",
                    "value": "R3",
                    "origin": "SK"
                },
                "catalogue_id": {
                    "__type__": "dtosk:dr:TaggedString",
                    "name": "none",
                    "description": "Catalogue id",
                    "value": "default_chain_R3_41",
                    "origin": "SK"
                },
                "diameter": {
                    "__type__": "dtosk:dr:TaggedScalar",
                    "name": "none",
                    "description": "Line diameter [m]. For chains: nominal diameter.",
                    "unit": "m",
                    "value": 0.111,
                    "origin": "SK"
                },
                "diameter_fls": {
                    "__type__": "dtosk:dr:TaggedScalar",
                    "name": "none",
                    "description": "Line diameter used for stress computation in FLS analysis [m]. Used to take into account the effect of corrosion. For chains: nominal diameter.",
                    "unit": "m",
                    "value": 0.0,
                    "origin": "SK"
                },
                "weight_in_air": {
                    "__type__": "dtosk:dr:TaggedScalar",
                    "name": "none",
                    "description": "Mass density in air [kg/m]",
                    "unit": "kg/m",
                    "value": 246.0,
                    "origin": "SK"
                },
                "weight_in_water": {
                    "__type__": "dtosk:dr:TaggedScalar",
                    "name": "none",
                    "description": "Mass density in water [kg/m]",
                    "unit": "kg/m",
                    "value": 213.87898089171975,
                    "origin": "SK"
                },
                "ea": {
                    "__type__": "dtosk:dr:TaggedScalar",
                    "name": "none",
                    "description": "Element axial stiffness [N]",
                    "unit": "N",
                    "value": 3870756308.487984,
                    "origin": "SK"
                },
                "cb": {
                    "__type__": "dtosk:dr:TaggedScalar",
                    "name": "none",
                    "description": "Cable/seabed friction coefficient [-]",
                    "unit": "-",
                    "value": 1.0,
                    "origin": "SK"
                },
                "mbl": {
                    "__type__": "dtosk:dr:TaggedScalar",
                    "name": "none",
                    "description": "Breaking load [N]",
                    "unit": "N",
                    "value": 9650000.0,
                    "origin": "SK"
                },
                "mbl_uls": {
                    "__type__": "dtosk:dr:TaggedScalar",
                    "name": "none",
                    "description": "Minimum Breaking load used for ULS analysis[N]. Used to take into account the effect of corrosion.",
                    "unit": "N",
                    "value": 9650000.0,
                    "origin": "SK"
                },
                "cost_per_meter": {
                    "__type__": "dtosk:dr:TaggedScalar",
                    "name": "none",
                    "description": "Cost per meter in euros",
                    "unit": "euros/m",
                    "value": 369.0,
                    "origin": "SK"
                },
                "ad": {
                    "__type__": "dtosk:dr:TaggedScalar",
                    "name": "none",
                    "description": "intercept parameter of the S-N curve, where the stress is given in [MPa]",
                    "unit": "-",
                    "value": 60000000000.0,
                    "origin": "SK"
                },
                "m": {
                    "__type__": "dtosk:dr:TaggedScalar",
                    "name": "none",
                    "description": "slope of the S-N curve",
                    "unit": "-",
                    "value": 3.0,
                    "origin": "SK"
                },
                "unstretched_length": {
                    "__type__": "dtosk:dr:TaggedScalar",
                    "name": "none",
                    "description": "Unstretched line length. [m]",
                    "unit": "m",
                    "value": 396.84504448998473,
                    "origin": "SK"
                }
            }
        },
        {
            "__type__": "dtosk:dr:DRMooringLineSegment",
            "name": "none",
            "description": "",
            "id": "1_1_2",
            "hierarchical": {
                "__type__": "dtosk:dr:DRMooringLineSegmentHierarchical",
                "name": "none",
                "description": "hierarchical connections",
                "part_of_mooring_line": {
                    "__type__": "dtosk:dr:TaggedString",
                    "name": "none",
                    "description": "parent mooring line id",
                    "value": "1_1_2",
                    "origin": "SK"
                },
                "node": {
                    "__type__": "dtosk:dr:TaggedStringArray",
                    "name": "none",
                    "description": "children node id",
                    "value": [
                        "1_1_3",
                        "1_1_4"
                    ],
                    "origin": "SK"
                }
            },
            "assessment": {
                "__type__": "dtosk:dr:DRMooringLineSegmentAssessment",
                "name": "none",
                "description": "assessment",
                "pretension": {
                    "__type__": "dtosk:dr:TaggedScalar",
                    "name": "none",
                    "description": "mooring line segment pretension",
                    "unit": "N",
                    "value": 288462.2789859565,
                    "origin": "SK"
                },
                "uls_maximum_tension": {
                    "__type__": "dtosk:dr:TaggedScalar",
                    "name": "none",
                    "description": "maximum tension calculated during ULS analysis",
                    "unit": "N",
                    "value": 443945.550008324,
                    "origin": "SK"
                }
            },
            "properties": {
                "__type__": "dtosk:dr:DRMooringLineSegmentProperties",
                "name": "none",
                "description": "properties",
                "line_type_name": {
                    "__type__": "dtosk:dr:TaggedString",
                    "name": "none",
                    "description": "Line type name",
                    "value": "default_chain_R3_41",
                    "origin": "SK"
                },
                "material": {
                    "__type__": "dtosk:dr:TaggedString",
                    "name": "none",
                    "description": "Material of the line",
                    "value": "steel",
                    "origin": "SK"
                },
                "type": {
                    "__type__": "dtosk:dr:TaggedString",
                    "name": "none",
                    "description": "Type of line: chain, rope, polyester",
                    "value": "chain",
                    "origin": "SK"
                },
                "quality": {
                    "__type__": "dtosk:dr:TaggedString",
                    "name": "none",
                    "description": "line quality (used for chain) : R3,R4",
                    "value": "R3",
                    "origin": "SK"
                },
                "catalogue_id": {
                    "__type__": "dtosk:dr:TaggedString",
                    "name": "none",
                    "description": "Catalogue id",
                    "value": "default_chain_R3_41",
                    "origin": "SK"
                },
                "diameter": {
                    "__type__": "dtosk:dr:TaggedScalar",
                    "name": "none",
                    "description": "Line diameter [m]. For chains: nominal diameter.",
                    "unit": "m",
                    "value": 0.111,
                    "origin": "SK"
                },
                "diameter_fls": {
                    "__type__": "dtosk:dr:TaggedScalar",
                    "name": "none",
                    "description": "Line diameter used for stress computation in FLS analysis [m]. Used to take into account the effect of corrosion. For chains: nominal diameter.",
                    "unit": "m",
                    "value": 0.0,
                    "origin": "SK"
                },
                "weight_in_air": {
                    "__type__": "dtosk:dr:TaggedScalar",
                    "name": "none",
                    "description": "Mass density in air [kg/m]",
                    "unit": "kg/m",
                    "value": 246.0,
                    "origin": "SK"
                },
                "weight_in_water": {
                    "__type__": "dtosk:dr:TaggedScalar",
                    "name": "none",
                    "description": "Mass density in water [kg/m]",
                    "unit": "kg/m",
                    "value": 213.87898089171975,
                    "origin": "SK"
                },
                "ea": {
                    "__type__": "dtosk:dr:TaggedScalar",
                    "name": "none",
                    "description": "Element axial stiffness [N]",
                    "unit": "N",
                    "value": 3870756308.487984,
                    "origin": "SK"
                },
                "cb": {
                    "__type__": "dtosk:dr:TaggedScalar",
                    "name": "none",
                    "description": "Cable/seabed friction coefficient [-]",
                    "unit": "-",
                    "value": 1.0,
                    "origin": "SK"
                },
                "mbl": {
                    "__type__": "dtosk:dr:TaggedScalar",
                    "name": "none",
                    "description": "Breaking load [N]",
                    "unit": "N",
                    "value": 9650000.0,
                    "origin": "SK"
                },
                "mbl_uls": {
                    "__type__": "dtosk:dr:TaggedScalar",
                    "name": "none",
                    "description": "Minimum Breaking load used for ULS analysis[N]. Used to take into account the effect of corrosion.",
                    "unit": "N",
                    "value": 9650000.0,
                    "origin": "SK"
                },
                "cost_per_meter": {
                    "__type__": "dtosk:dr:TaggedScalar",
                    "name": "none",
                    "description": "Cost per meter in euros",
                    "unit": "euros/m",
                    "value": 369.0,
                    "origin": "SK"
                },
                "ad": {
                    "__type__": "dtosk:dr:TaggedScalar",
                    "name": "none",
                    "description": "intercept parameter of the S-N curve, where the stress is given in [MPa]",
                    "unit": "-",
                    "value": 60000000000.0,
                    "origin": "SK"
                },
                "m": {
                    "__type__": "dtosk:dr:TaggedScalar",
                    "name": "none",
                    "description": "slope of the S-N curve",
                    "unit": "-",
                    "value": 3.0,
                    "origin": "SK"
                },
                "unstretched_length": {
                    "__type__": "dtosk:dr:TaggedScalar",
                    "name": "none",
                    "description": "Unstretched line length. [m]",
                    "unit": "m",
                    "value": 396.84504448998473,
                    "origin": "SK"
                }
            }
        },
        {
            "__type__": "dtosk:dr:DRMooringLineSegment",
            "name": "none",
            "description": "",
            "id": "1_1_3",
            "hierarchical": {
                "__type__": "dtosk:dr:DRMooringLineSegmentHierarchical",
                "name": "none",
                "description": "hierarchical connections",
                "part_of_mooring_line": {
                    "__type__": "dtosk:dr:TaggedString",
                    "name": "none",
                    "description": "parent mooring line id",
                    "value": "1_1_3",
                    "origin": "SK"
                },
                "node": {
                    "__type__": "dtosk:dr:TaggedStringArray",
                    "name": "none",
                    "description": "children node id",
                    "value": [
                        "1_1_5",
                        "1_1_6"
                    ],
                    "origin": "SK"
                }
            },
            "assessment": {
                "__type__": "dtosk:dr:DRMooringLineSegmentAssessment",
                "name": "none",
                "description": "assessment",
                "pretension": {
                    "__type__": "dtosk:dr:TaggedScalar",
                    "name": "none",
                    "description": "mooring line segment pretension",
                    "unit": "N",
                    "value": 288462.2791670475,
                    "origin": "SK"
                },
                "uls_maximum_tension": {
                    "__type__": "dtosk:dr:TaggedScalar",
                    "name": "none",
                    "description": "maximum tension calculated during ULS analysis",
                    "unit": "N",
                    "value": 443945.4695734264,
                    "origin": "SK"
                }
            },
            "properties": {
                "__type__": "dtosk:dr:DRMooringLineSegmentProperties",
                "name": "none",
                "description": "properties",
                "line_type_name": {
                    "__type__": "dtosk:dr:TaggedString",
                    "name": "none",
                    "description": "Line type name",
                    "value": "default_chain_R3_41",
                    "origin": "SK"
                },
                "material": {
                    "__type__": "dtosk:dr:TaggedString",
                    "name": "none",
                    "description": "Material of the line",
                    "value": "steel",
                    "origin": "SK"
                },
                "type": {
                    "__type__": "dtosk:dr:TaggedString",
                    "name": "none",
                    "description": "Type of line: chain, rope, polyester",
                    "value": "chain",
                    "origin": "SK"
                },
                "quality": {
                    "__type__": "dtosk:dr:TaggedString",
                    "name": "none",
                    "description": "line quality (used for chain) : R3,R4",
                    "value": "R3",
                    "origin": "SK"
                },
                "catalogue_id": {
                    "__type__": "dtosk:dr:TaggedString",
                    "name": "none",
                    "description": "Catalogue id",
                    "value": "default_chain_R3_41",
                    "origin": "SK"
                },
                "diameter": {
                    "__type__": "dtosk:dr:TaggedScalar",
                    "name": "none",
                    "description": "Line diameter [m]. For chains: nominal diameter.",
                    "unit": "m",
                    "value": 0.111,
                    "origin": "SK"
                },
                "diameter_fls": {
                    "__type__": "dtosk:dr:TaggedScalar",
                    "name": "none",
                    "description": "Line diameter used for stress computation in FLS analysis [m]. Used to take into account the effect of corrosion. For chains: nominal diameter.",
                    "unit": "m",
                    "value": 0.0,
                    "origin": "SK"
                },
                "weight_in_air": {
                    "__type__": "dtosk:dr:TaggedScalar",
                    "name": "none",
                    "description": "Mass density in air [kg/m]",
                    "unit": "kg/m",
                    "value": 246.0,
                    "origin": "SK"
                },
                "weight_in_water": {
                    "__type__": "dtosk:dr:TaggedScalar",
                    "name": "none",
                    "description": "Mass density in water [kg/m]",
                    "unit": "kg/m",
                    "value": 213.87898089171975,
                    "origin": "SK"
                },
                "ea": {
                    "__type__": "dtosk:dr:TaggedScalar",
                    "name": "none",
                    "description": "Element axial stiffness [N]",
                    "unit": "N",
                    "value": 3870756308.487984,
                    "origin": "SK"
                },
                "cb": {
                    "__type__": "dtosk:dr:TaggedScalar",
                    "name": "none",
                    "description": "Cable/seabed friction coefficient [-]",
                    "unit": "-",
                    "value": 1.0,
                    "origin": "SK"
                },
                "mbl": {
                    "__type__": "dtosk:dr:TaggedScalar",
                    "name": "none",
                    "description": "Breaking load [N]",
                    "unit": "N",
                    "value": 9650000.0,
                    "origin": "SK"
                },
                "mbl_uls": {
                    "__type__": "dtosk:dr:TaggedScalar",
                    "name": "none",
                    "description": "Minimum Breaking load used for ULS analysis[N]. Used to take into account the effect of corrosion.",
                    "unit": "N",
                    "value": 9650000.0,
                    "origin": "SK"
                },
                "cost_per_meter": {
                    "__type__": "dtosk:dr:TaggedScalar",
                    "name": "none",
                    "description": "Cost per meter in euros",
                    "unit": "euros/m",
                    "value": 369.0,
                    "origin": "SK"
                },
                "ad": {
                    "__type__": "dtosk:dr:TaggedScalar",
                    "name": "none",
                    "description": "intercept parameter of the S-N curve, where the stress is given in [MPa]",
                    "unit": "-",
                    "value": 60000000000.0,
                    "origin": "SK"
                },
                "m": {
                    "__type__": "dtosk:dr:TaggedScalar",
                    "name": "none",
                    "description": "slope of the S-N curve",
                    "unit": "-",
                    "value": 3.0,
                    "origin": "SK"
                },
                "unstretched_length": {
                    "__type__": "dtosk:dr:TaggedScalar",
                    "name": "none",
                    "description": "Unstretched line length. [m]",
                    "unit": "m",
                    "value": 396.84504448998473,
                    "origin": "SK"
                }
            }
        }
    ],
    "node": [
        {
            "__type__": "dtosk:dr:DRNode",
            "name": "none",
            "description": "",
            "id": "1_1_1",
            "hierarchical": {
                "__type__": "dtosk:dr:DRNodeHierarchical",
                "name": "none",
                "description": "hierarchical connections",
                "part_of_station_keeping": {
                    "__type__": "dtosk:dr:TaggedString",
                    "name": "none",
                    "description": "parent station keeping id",
                    "value": "1_1",
                    "origin": "SK"
                }
            },
            "location": {
                "__type__": "dtosk:dr:DRNodeLocation",
                "name": "none",
                "description": "location",
                "reference_system": {
                    "__type__": "dtosk:dr:TaggedString",
                    "name": "none",
                    "description": "Reference system in which the position is given : farm or vessel",
                    "value": "farm",
                    "origin": "SK"
                },
                "position": {
                    "__type__": "dtosk:dr:TaggedArray",
                    "name": "none",
                    "description": "Vector of 3 elements, describing coordinates x,y,z in the reference system (farm or vessel)",
                    "unit": "m",
                    "value": [
                        343.64184843123394,
                        0.0,
                        -100.0
                    ],
                    "origin": "SK"
                }
            }
        },
        {
            "__type__": "dtosk:dr:DRNode",
            "name": "none",
            "description": "",
            "id": "1_1_2",
            "hierarchical": {
                "__type__": "dtosk:dr:DRNodeHierarchical",
                "name": "none",
                "description": "hierarchical connections",
                "part_of_station_keeping": {
                    "__type__": "dtosk:dr:TaggedString",
                    "name": "none",
                    "description": "parent station keeping id",
                    "value": "1_1",
                    "origin": "SK"
                }
            },
            "location": {
                "__type__": "dtosk:dr:DRNodeLocation",
                "name": "none",
                "description": "location",
                "reference_system": {
                    "__type__": "dtosk:dr:TaggedString",
                    "name": "none",
                    "description": "Reference system in which the position is given : farm or vessel",
                    "value": "vessel",
                    "origin": "SK"
                },
                "position": {
                    "__type__": "dtosk:dr:TaggedArray",
                    "name": "none",
                    "description": "Vector of 3 elements, describing coordinates x,y,z in the reference system (farm or vessel)",
                    "unit": "m",
                    "value": [
                        5.0,
                        0.0,
                        1.0
                    ],
                    "origin": "SK"
                }
            }
        },
        {
            "__type__": "dtosk:dr:DRNode",
            "name": "none",
            "description": "",
            "id": "1_1_3",
            "hierarchical": {
                "__type__": "dtosk:dr:DRNodeHierarchical",
                "name": "none",
                "description": "hierarchical connections",
                "part_of_station_keeping": {
                    "__type__": "dtosk:dr:TaggedString",
                    "name": "none",
                    "description": "parent station keeping id",
                    "value": "1_1",
                    "origin": "SK"
                }
            },
            "location": {
                "__type__": "dtosk:dr:DRNodeLocation",
                "name": "none",
                "description": "location",
                "reference_system": {
                    "__type__": "dtosk:dr:TaggedString",
                    "name": "none",
                    "description": "Reference system in which the position is given : farm or vessel",
                    "value": "farm",
                    "origin": "SK"
                },
                "position": {
                    "__type__": "dtosk:dr:TaggedArray",
                    "name": "none",
                    "description": "Vector of 3 elements, describing coordinates x,y,z in the reference system (farm or vessel)",
                    "unit": "m",
                    "value": [
                        -171.8209242156169,
                        297.60257054489034,
                        -100.0
                    ],
                    "origin": "SK"
                }
            }
        },
        {
            "__type__": "dtosk:dr:DRNode",
            "name": "none",
            "description": "",
            "id": "1_1_4",
            "hierarchical": {
                "__type__": "dtosk:dr:DRNodeHierarchical",
                "name": "none",
                "description": "hierarchical connections",
                "part_of_station_keeping": {
                    "__type__": "dtosk:dr:TaggedString",
                    "name": "none",
                    "description": "parent station keeping id",
                    "value": "1_1",
                    "origin": "SK"
                }
            },
            "location": {
                "__type__": "dtosk:dr:DRNodeLocation",
                "name": "none",
                "description": "location",
                "reference_system": {
                    "__type__": "dtosk:dr:TaggedString",
                    "name": "none",
                    "description": "Reference system in which the position is given : farm or vessel",
                    "value": "vessel",
                    "origin": "SK"
                },
                "position": {
                    "__type__": "dtosk:dr:TaggedArray",
                    "name": "none",
                    "description": "Vector of 3 elements, describing coordinates x,y,z in the reference system (farm or vessel)",
                    "unit": "m",
                    "value": [
                        -2.499999999999999,
                        4.330127018922194,
                        1.0
                    ],
                    "origin": "SK"
                }
            }
        },
        {
            "__type__": "dtosk:dr:DRNode",
            "name": "none",
            "description": "",
            "id": "1_1_5",
            "hierarchical": {
                "__type__": "dtosk:dr:DRNodeHierarchical",
                "name": "none",
                "description": "hierarchical connections",
                "part_of_station_keeping": {
                    "__type__": "dtosk:dr:TaggedString",
                    "name": "none",
                    "description": "parent station keeping id",
                    "value": "1_1",
                    "origin": "SK"
                }
            },
            "location": {
                "__type__": "dtosk:dr:DRNodeLocation",
                "name": "none",
                "description": "location",
                "reference_system": {
                    "__type__": "dtosk:dr:TaggedString",
                    "name": "none",
                    "description": "Reference system in which the position is given : farm or vessel",
                    "value": "farm",
                    "origin": "SK"
                },
                "position": {
                    "__type__": "dtosk:dr:TaggedArray",
                    "name": "none",
                    "description": "Vector of 3 elements, describing coordinates x,y,z in the reference system (farm or vessel)",
                    "unit": "m",
                    "value": [
                        -171.82092421561708,
                        -297.6025705448901,
                        -100.0
                    ],
                    "origin": "SK"
                }
            }
        },
        {
            "__type__": "dtosk:dr:DRNode",
            "name": "none",
            "description": "",
            "id": "1_1_6",
            "hierarchical": {
                "__type__": "dtosk:dr:DRNodeHierarchical",
                "name": "none",
                "description": "hierarchical connections",
                "part_of_station_keeping": {
                    "__type__": "dtosk:dr:TaggedString",
                    "name": "none",
                    "description": "parent station keeping id",
                    "value": "1_1",
                    "origin": "SK"
                }
            },
            "location": {
                "__type__": "dtosk:dr:DRNodeLocation",
                "name": "none",
                "description": "location",
                "reference_system": {
                    "__type__": "dtosk:dr:TaggedString",
                    "name": "none",
                    "description": "Reference system in which the position is given : farm or vessel",
                    "value": "vessel",
                    "origin": "SK"
                },
                "position": {
                    "__type__": "dtosk:dr:TaggedArray",
                    "name": "none",
                    "description": "Vector of 3 elements, describing coordinates x,y,z in the reference system (farm or vessel)",
                    "unit": "m",
                    "value": [
                        -2.500000000000002,
                        -4.330127018922193,
                        1.0
                    ],
                    "origin": "SK"
                }
            }
        }
    ]
}
