{
    "femgen model": 

        {
            "__name__": "MooringDesignCriteria",

            "__description__": "data model representing criteria for mooring system design",

            "__type__": "dtosk:mooring:MooringDesignCriteria",
        
            "__properties__": [
                { "name":"proof_load_coeff",
                    "type": "double",
                    "value":"0.8",
                    "description":"Maximum tension on anchor under installation in terms of MBL (Tension = proof_load_coeff*MBL)"
                },
                { "name":"pretension_coeff_min",
                    "type": "double",
                    "value":"0.03",
                    "description":"Minimum pretension coefficient in terms of MBL (pretension_min = pretension_coeff_min*MBL)"
                },
                { "name":"fairlead_vertical_position",
                    "type": "double",
                    "value":"0.0",
                    "description":"Fairlead vertical position [m]. Negative if below water."
                },
                { "name":"fairlead_radius",
                    "type": "double",
                    "value":"0.0",
                    "description":"Fairlead radius [m]."
                },
                { "name":"length_increment",
                    "type": "double",
                    "value":"0.5",
                    "description":"Line length increment when winching the line in order to match the pretension"
                },
                { "name":"offset_max",
                    "type": "double",
                    "value":"30.0",
                    "description":"Total maximum offset (steady + dynamic)"
                },
                { "name":"Tmin",
                    "type": "double",
                    "value":"30.0",
                    "description":"Minimum eigenperiod [s]"
                },
                { "name":"mooring_type",
                    "value":"catenary",
                    "type": "string",
                    "description":"device profile : catenary, taut, semitaut"
                },
                { "name":"line_quality",
                    "value":"R3",
                    "type": "string",
                    "description":"quality of the lines (used to select correct catalogue data)"
                },
                { "name":"safety_factor",
                    "type": "double",
                    "value":"1.7",
                    "description":"Safety factor used to check tension against mbl : Tension * SF < MBL is ok."
                },
                {"name":"gamma_f",
                    "type":"double",
                    "value":"8.0",
                    "description":"safety factor for fatigue analysis. Applied to steel material"
                }, 
                {"name":"gamma_f_fiber_rope",
                    "type":"double",
                    "value":"60.0",
                    "description":"safety factor for fatigue analysis. Applied to material other than steel (fiber rope in practice)"
                },
                { "name":"nlines",
                    "type": "int",
                    "value":"3",
                    "description":"Number of lines to start the design loop with"
                },
                { "name":"nlines_max",
                    "type": "int",
                    "value":"10",
                    "description":"Maximum number of lines to limit the number of iterations in the design loop"
                },
                { "name":"n_years_lifetime",
                    "type": "double",
                    "value":"25",
                    "description":"Lifetime of the mooring system in years"
                },
                { "name":"mooring_output_folder_path",
                    "type": "string",
                    "description":"Path to folder where map++ files will be saved"
                },
                { "name":"mooring_output_reference_system",
                    "type": "string",
                    "value": "farm",
                    "description":"Reference system in which the mooring will be exported: device or farm"
                },
                { "name":"ancillaries",
                    "type": "dtosk:mooring:Ancillaries",
                    "description":"List of ancillaries"
                }                 
        ]
    }
}