          40           8           6           6           0
 --- Force ---
           1           1           1
           2           1           2
           3           1           3
           4           1           4
           5           1           5
           6           1           6
 --- Motion ---
           1           1           1
           2           1           2
           3           1           3
           4           1           4
           5           1           5
           6           1           6
  0.0000000E+00  0.8601980       1.720396       2.580594       3.440792    
   4.300990       5.161188       6.021386    
  0.1500000      0.1974359      0.2448718      0.2923077      0.3397436    
  0.3871795      0.4346154      0.4820513      0.5294872      0.5769231    
  0.6243590      0.6717949      0.7192308      0.7666667      0.8141025    
  0.8615384      0.9089744      0.9564103       1.003846       1.051282    
   1.098718       1.146154       1.193590       1.241026       1.288462    
   1.335897       1.383333       1.430769       1.478205       1.525641    
   1.573077       1.620513       1.667949       1.715385       1.762820    
   1.810256       1.857692       1.905128       1.952564       2.000000    
 
